<?xml version="1.0" encoding="UTF-8"?>
<glyph name="uni255D" format="1">
  <advance width="600"/>
  <unicode hex="255D"/>
  <outline>
    <contour>
      <point x="260" y="390" type="line"/>
      <point x="260" y="1000" type="line"/>
      <point x="180" y="1000" type="line"/>
      <point x="180" y="470" type="line"/>
      <point x="-5" y="470" type="line"/>
      <point x="-5" y="390" type="line"/>
    </contour>
    <contour>
      <point x="420" y="230" type="line"/>
      <point x="420" y="1000" type="line"/>
      <point x="340" y="1000" type="line"/>
      <point x="340" y="310" type="line"/>
      <point x="-5" y="310" type="line"/>
      <point x="-5" y="230" type="line"/>
    </contour>
  </outline>
  <lib>
    <dict>
      <key>com.typemytype.robofont.layerData</key>
      <dict>
      </dict>
    </dict>
  </lib>
</glyph>
